…
``` r
#162 conflicts, 23 wars

#list of conflicts in 2018 by location
dyadic %>% filter(year == 2018) %>%
    group_by(location) %>%
    summarise(intensity_level = max(intensity_level)) %>%
    arrange(-intensity_level)
```

    ## # A tibble: 36 x 2
    ##    location                 intensity_level
    ##    <fct>                              <dbl>
    ##  1 Afghanistan                            2
    ##  2 Somalia                                2
    ##  3 Syria                                  2
    ##  4 Yemen (North Yemen)                    2
    ##  5 Algeria                                1
    ##  6 Burkina Faso                           1
    ##  7 Cameroon                               1
    ##  8 Central African Republic               1
    ##  9 Chad                                   1
    ## 10 Colombia                               1
    ## # … with 26 more rows
…
Further analysis
----------------

The question for further analysis is which conflicts are especially complex. Has complexity increased around the globe or is there one group of conflicts causing the rise?

``` r
# are there specific wars that drag the average up?
# list the most complex wars since 2000:
extsup %>% filter(ywp_year >= 2000) %>%
    group_by(ywp_year, bwd_name) %>% #group by year and conflict
    summarise(nparties = length(unique(external_name))) %>% #number of external parties per conflict
    arrange(-nparties)
```

    ## # A tibble: 448 x 3
    ## # Groups:   ywp_year [10]
    ##    ywp_year bwd_name                                               nparties
    ##       <int> <chr>                                                     <int>
    ##  1     2003 Government of Iraq - Governments of USA, United Kingd…       46
    ##  2     2009 Government of Afghanistan - Taleban                          46
    ##  3     2008 Government of Afghanistan - Taleban                          44
    ##  4     2003 Government of Afghanistan - Taleban                          43
    ##  5     2009 Government of Afghanistan - Hizb-i Islami-yi Afghanis…       43
    ##  6     2007 Government of Afghanistan - Taleban                          41
    ##  7     2008 Government of Afghanistan - Hizb-i Islami-yi Afghanis…       41
    ##  8     2006 Government of Afghanistan - Taleban                          40
    ##  9     2004 Government of Afghanistan - Taleban                          34
    ## 10     2004 Government of Iraq - Al-Mahdi Army                           34
    ## # … with 438 more rows
…
